drive free space mb mb violated threshold mb,IM3869432
remote site containing node rttnnasub01 unreachable,IM3877704
remote site containing node sainindwr01 unreachable,IM3877708
file prod e 8ts application connect ci scenarios apsn2 log prod edi slv received log modified last hours,IM3884314
node down,IM3918362
remote site containing node sacarocar01 unreachable,IM3918699
remote site containing node sailgevbr01 unreachable,IM3918698
free space disk drive less mb,IM3894834
secondary nnm server cluster,IM3904170
access point down,IM3872043
access point down,IM3872042
filesystem oracle u02 exceeded minor threshold,IM3892705
service 9ss rpp idmdatamartautomation state running,IM3887042
free space disk drive less mb,IM3869232
node down,IM3877674
filesystem ldap slapd ned bak exceeded minor threshold,IM3877671
paging file total usage exceeds threshold,IM3869543
url http w911wvip nmcc sprintspectrum com e911 simplehome failed load,IM3940393
filesystem oracle u02 exceeded minor threshold,IM3877817
free space disk drive less mb,IM3912342
remote site containing node saflcrgar01 unreachable,IM3916917
node down,IM3908739
remote site containing node saohlacar01 unreachable,IM3908738
filesystem tmp exceed threshold,IM3915518
paging file total usage exceeds threshold,IM3940713
free space disk drive less mb,IM3892565
remote site containing node sanynycsr01 unreachable,IM3908737
free space disk drive less mb,IM3940714
interface down,IM3891141
filesystem tmp exceed threshold,IM3903124
free space disk drive less mb,IM3915283
free space disk drive less mb,IM3919507
interface down,IM3912093
filesystem var exceed threshold,IM3935579
free space disk drive less mb,IM3895466
free space disk drive less mb,IM3906931
free space disk drive less mb,IM3886569
access point down,IM3895267
filesystem tmp exceed threshold,IM3915466
remote site containing node satxausir01 unreachable,IM3910105
node down,IM3876032
paging file total usage exceeds threshold,IM3905490
mountpoints become read plsle144,IM3871561
node down,IM3921799
drive free space mb mb violated threshold mb,IM3904949
primary nnm server cluster,IM3906841
remote site containing node satxhsobr01 unreachable,IM3885752
free space disk drive less mb,IM3885751
filesystem home exceed threshold,IM3900209
process tools jdk jdk1 0 92 bin java dmule home tools mule lvo apigw211 lvo  voilated threshold,IM3927022
node down,IM3942713
free space disk drive less mb,IM3937539
node down,IM3874649
remote site containing node swncchrtb01 unreachable,IM3931275
node down,IM3937532
paging file total usage exceeds threshold,IM3870388
paging file total usage exceeds threshold,IM3871892
remote site containing node sacaphibr01 unreachable,IM3945359
filesystem tmp exceed threshold,IM3931073
paging file total usage exceeds threshold,IM3870386
paging file total usage exceeds threshold,IM3870387
paging file total usage exceeds threshold,IM3870380
paging file total usage exceeds threshold,IM3870382
node down,IM3934651
paging file total usage exceeds threshold,IM3869947
node down,IM3937636
node down,IM3916747
node down,IM3902220
node down,IM3902223
node down,IM3902222
remote site containing node saflcrgar01 unreachable,IM3916989
remote site containing node saprcagcr01 unreachable,IM3910254
free space disk drive less mb,IM3903869
filesystem var exceed threshold,IM3907520
filesystem home exceed threshold,IM3939226
free space disk drive less mb,IM3931356
node down,IM3887049
paging file total usage exceeds threshold,IM3870166
free space disk drive less mb,IM3943712
file prod e 8ts application connect ci scenarios barcode logs am2bcm log modified last minutes,IM3887914
remote site containing node sawibrfar01 unreachable,IM3935623
filesystem var exceed threshold,IM3936139
filesystem home exceed threshold,IM3937849
node down,IM3902136
node down,IM3902139
free space disk drive less mb,IM3929775
remote site containing node sawiglear01 unreachable,IM3894604
service 9ss rpp idmdatamartautomation state running,IM3937386
node down,IM3905305
node down,IM3905300
free space disk drive less mb,IM3905309
filesystem tmp exceed threshold,IM3885212
filesystem tmp exceed threshold,IM3908855
access point down,IM3882530
free space disk drive less mb,IM3882240
remote site containing node sawibrfar01 unreachable,IM3888239
node down,IM3901811
node down,IM3881997
node down,IM3901744
paging file total usage exceeds threshold,IM3939090
node down,IM3901819
g5s down triggered application app g5s prod trigger out transactions failed,IM3887860
filesystem tmp exceed threshold,IM3923232
node down,IM3929918
free space disk drive less mb,IM3932237
node down,IM3919009
free space disk drive less mb,IM3904789
remote site containing node rtganorbb01 unreachable,IM3922544
paging file total usage exceeds threshold,IM3905013
filesystem apps exceeded minor threshold,IM3905016
process tools jdk jdk1 0 92 bin java dmule home tools mule lvo apigw211 lvo  voilated threshold,IM3920453
remote site containing node sancjnvcr01 unreachable,IM3882337
node down,IM3869157
node down,IM3924931
remote site containing node sawiglear01 unreachable,IM3894756
free space disk drive less mb,IM3901337
service 9ss rpp idmdatamartautomation state running,IM3912236
node down,IM3898467
interface down,IM3897417
free space disk drive less mb,IM3897416
free space disk drive less mb,IM3886183
node down,IM3925793
service 9ss rpp idmdatamartautomation state running,IM3892171
free space disk drive less mb,IM3897419
service 9ss rpp idmdatamartautomation state running,IM3877067
node down,IM3901678
process tools jdk jdk1 0 92 bin java dmule home tools mule lvo apigw211 lvo  voilated threshold,IM3925888
node down,IM3908180
node down,IM3924236
node down,IM3888120
interface down,IM3869449
node down,IM3898646
node down,IM3925538
node down,IM3925531
node down,IM3925537
node down,IM3925534
node down,IM3875964
free space disk drive less mb,IM3886505
remote site containing node sawibrfar01 unreachable,IM3886056
node down,IM3880584
filesystem tmp exceed threshold,IM3940385
free space disk drive less mb,IM3887671
free space disk drive less mb,IM3876280
process tools jdk jdk1 0 92 bin java dmule home tools mule lvo apigw211 lvo  voilated threshold,IM3924209
node down,IM3873375
remote site containing node saflsnfar01 unreachable,IM3908736
remote site containing node sakyloier01 unreachable,IM3925333
free space disk drive less mb,IM3871621
paging file total usage exceeds threshold,IM3940704
node down,IM3917321
node down,IM3891156
node down,IM3941653
free space disk drive less mb,IM3877497
node down,IM3912082
node down,IM3930247
filesystem tmp exceed threshold,IM3871718
free space disk drive less mb,IM3906923
paging file total usage exceeds threshold,IM3871711
process tools ews tomcat7 0 sprt 02 jdk1 0 06 bin java voilated threshold,IM3924114
process usr local bin node voilated threshold,IM3924113
process tools ews tomcat7 0 sprt 02 jdk1 0 06 bin java voilated threshold,IM3924112
process tools ews tomcat7 0 sprt 02 jdk1 0 06 bin java voilated threshold,IM3924111
free space disk drive less mb,IM3911199
free space disk drive less mb,IM3931717
node down,IM3905485
filesystem tmp exceed threshold,IM3915476
remote site containing node sawiglear01 unreachable,IM3895259
node down,IM3936292
free space disk drive less mb,IM3875637
free space disk drive less mb,IM3876720
remote site containing node saprcagcr01 unreachable,IM3911571
paging file total usage exceeds threshold,IM3920941
node down,IM3891931
remote site containing node sacalansr01 unreachable,IM3904200
filesystem oracle u02 exceeded minor threshold,IM3904202
drive free space mb mb violated threshold mb,IM3895033
free space disk drive less mb,IM3891021
remote site containing node sascsmrbr01 unreachable,IM3921321
node down,IM3911373
node down,IM3911372
node down,IM3870573
node down,IM3870572
filesystem home exceed threshold,IM3936852
drive free space mb mb violated threshold mb,IM3871883
process tools jboss config pvmkc254 4wn production sales6 conf voilated threshold,IM3870371
process tools jboss config pvmkc254 4wn production sales4 conf voilated threshold,IM3870370
paging file total usage exceeds threshold,IM3870373
process tools jboss config pvmkc254 4wn production sales2 conf voilated threshold,IM3870372
paging file total usage exceeds threshold,IM3870375
remote site containing node satnmadar01 unreachable,IM3935032
free space disk drive less mb,IM3923978
filesystem tmp exceed threshold,IM3943495
filesystem oracle u02 exceeded minor threshold,IM3889704
node down,IM3894720
free space disk drive less mb,IM3894724
url https itam corp sprint com assetmanager failed load,IM3900509
g5s down triggered application app g5s prod trigger out transactions failed,IM3895109
remote site containing node satxausir01 unreachable,IM3942014
free space disk drive less mb,IM3931440
filesystem oracle u02 exceeded minor threshold,IM3874722
6wn down triggered application app 6wn prod trigger out transactions failed,IM3916997
process name crond owner root status minor condition currently running processes configured threshold,IM3874470
url https webservicesgateway sprint com services mvno querycsaservice v1 wsdl failed load,IM3890867
drive free space mb violated threshold mb,IM3871979
remote site containing node sasccmbtr01 unreachable,IM3870113
paging file total usage exceeds threshold,IM3870119
remote site containing node sancchtcr01 unreachable,IM3871972
filesystem tmp exceed threshold,IM3909669
free space disk drive less mb,IM3926871
node down,IM3902120
paging file total usage exceeds threshold,IM3902697
filesystem home exceed threshold,IM3937856
node down,IM3937854
remote site containing node sanvrenkr01 unreachable,IM3909441
filesystem home exceed threshold,IM3945094
node down,IM3905311
paging file total usage exceeds threshold,IM3870020
node down,IM3901804
remote site containing node saflccrar01 unreachable,IM3942326
file prod e 8ts application connect ci scenarios eventin logs eln2en log modified last minutes,IM3887872
remote site containing node sancwilnr01 unreachable,IM3885221
drive free space mb mb violated threshold mb,IM3881235
remote site containing node satxarlar01 unreachable,IM3913133
node down,IM3902344
remote site containing node rtnychkcb01 unreachable,IM3928231
paging file total usage exceeds threshold,IM3893985
node down,IM3923223
free space disk drive less mb,IM3904573
remote site containing node sacaelcdr01 unreachable,IM3925652
node down,IM3872998
paging file total usage exceeds threshold,IM3905005
paging file total usage exceeds threshold,IM3905001
paging file total usage exceeds threshold,IM3912501
free space disk drive less mb,IM3883747
remote site containing node saflmirar01 unreachable,IM3882346
free space disk drive less mb,IM3937276
free space disk drive less mb,IM3881521
remote site containing node samabosir01 unreachable,IM3901485
node down,IM3901482
free space disk drive less mb,IM3925438
remote site containing node swpagtrab01 unreachable,IM3901060
remote site containing node sanvskycr01 unreachable,IM3898470
remote site containing node savaarlir01 unreachable,IM3872197
filesystem oracle u02 exceeded minor threshold,IM3908536
remote site containing node saflftlnr01 unreachable,IM3908533
node down,IM3872191
remote site containing node saflbocgr01 unreachable,IM3905823
paging file total usage exceeds threshold,IM3869324
paging file total usage exceeds threshold,IM3918164
free space disk drive less mb,IM3914130
drive free space mb mb violated threshold mb,IM3898875
node down,IM3901662
node down,IM3901666
free space disk drive less mb,IM3899873
free space disk drive less mb,IM3899872
node down,IM3876033
free space disk drive less mb,IM3913836
free space disk drive less mb,IM3913834
node down,IM3898658
free space disk drive less mb,IM3913833
node down,IM3924321
remote site containing node sanvskycr01 unreachable,IM3918309
remote site containing node satxausir01 unreachable,IM3897231
paging file total usage exceeds threshold,IM3869458
remote site containing node savamanbr01 unreachable,IM3898653
node down,IM3925505
node down,IM3925504
node down,IM3925503
node down,IM3925502
node down,IM3880861
free space disk drive less mb,IM3869210
filesystem tmp exceed threshold,IM3917248
filesystem exceed threshold,IM3917247
remote site containing node sacathoar01 unreachable,IM3892905
drive free space mb violated threshold mb,IM3868947
node down,IM3919417
remote site containing node sanynycsr01 unreachable,IM3921080
free space disk drive less mb,IM3887646
node down,IM3877831
drive free space mb mb violated threshold mb,IM3876838
node down,IM3924210
free space disk drive less mb,IM3905811
remote site containing node saprhumar01 unreachable,IM3898256
remote site containing node sawibrfar01 unreachable,IM3908718
remote site containing node sawioshar01 unreachable,IM3908717
node down,IM3908716
filesystem tmp exceed threshold,IM3880918
node down,IM3908712
node down,IM3888138
free space disk drive less mb,IM3940065
free space disk drive less mb,IM3915264
free space disk drive less mb,IM3876639
service 9ss rpp idmdatamartautomation state running,IM3880468
node down,IM3888135
service 9ss rpp idmdatamartautomation state running,IM3906640
remote site containing node saflmimnr01 unreachable,IM3876746
node down,IM3896824
node down,IM3876743
free space disk drive less mb,IM3889555
free space disk drive less mb,IM3915080
remote site containing node saohhowar01 unreachable,IM3897108
node down,IM3935357
remote site containing node rtmawplab11 unreachable,IM3913879
free space disk drive less mb,IM3935351
free space disk drive less mb,IM3906917
remote site containing node sailrlmcr01 unreachable,IM3924100
process tools ews tomcat7 0 sprt 02 jdk1 0 06 bin java voilated threshold,IM3924103
process tools jboss config pvmkc254 4wn production sales4 conf voilated threshold,IM3924104
process tools jboss config pvmkc254 4wn production sales6 conf voilated threshold,IM3924105
process tools ews tomcat7 0 sprt 02 jdk1 0 06 bin java voilated threshold,IM3924107
node down,IM3895240
process tools ews tomcat7 0 sprt 02 jdk1 0 06 bin java voilated threshold,IM3924109
node down,IM3921021
paging file total usage exceeds threshold,IM3871763
remote site containing node saazgilcr01 unreachable,IM3880605
filesystem oracle u02 exceeded minor threshold,IM3891239
remote site containing node sacogrjbr01 unreachable,IM3921421
free space disk drive less mb,IM3876679
process java standalone server xx xms4096m xmx4096m xx maxpermsize 512m verbose gc xx xx xloggc logs zfm production jboss pvmkg067 zfm production sparc 8009 voilated threshold,IM3936732
free space disk drive less mb,IM3890187
remote site containing node cnohakrcda2 unreachable,IM3913876
free space disk drive less mb,IM3935130
remote site containing node sakyloier01 unreachable,IM3930476
free space disk drive less mb,IM3934997
drive free space mb mb violated threshold mb,IM3904967
filesystem tmp exceed threshold,IM3938640
filesystem home exceed threshold,IM3938641
remote site containing node samanatbr01 unreachable,IM3879430
remote site containing node sancchtcr01 unreachable,IM3915311
remote site containing node satxdenbr01 unreachable,IM3943469
remote site containing node saflbrnar01 unreachable,IM3915317
node down,IM3902593
remote site containing node sancdurqr01 unreachable,IM3902592
paging file total usage exceeds threshold,IM3870361
free space disk drive less mb,IM3893970
node down,IM3902202
node down,IM3902204
free space disk drive less mb,IM3902758
remote site containing node saminover01 unreachable,IM3885642
cos retail issue resolution,IM3942022
free space disk drive less mb,IM3942020
free space disk drive less mb,IM3931903
filesystem var log exceed threshold,IM3940219
process tools jdk jdk1 0 92 bin java dmule home tools mule lvo apigw211 lvo  voilated threshold,IM3942351
process tools jdk jdk1 0 92 bin java dmule home tools mule lvo apigw211 lvo  voilated threshold,IM3942350
interface down,IM3894578
service 9ss rpp idmdatamartautomation state running,IM3910906
paging file total usage exceeds threshold,IM3870105
node down,IM3936117
node down,IM3936446
filesystem var exceed threshold,IM3936445
filesystem var exceed threshold,IM3935642
remote site containing node samospebr01 unreachable,IM3928330
free space disk drive less mb,IM3906122
node down,IM3902114
free space disk drive less mb,IM3903750
filesystem home exceed threshold,IM3880437
free space disk drive less mb,IM3905361
remote site containing node rtnjmahdb01 unreachable,IM3928087
filesystem var exceed threshold,IM3937881
filesystem home exceed threshold,IM3937880
node down,IM3901873
node down,IM3901872
5in down triggered application app 5in prod trigger out transactions failed,IM3902370
process name crond owner root status minor condition currently running processes configured threshold,IM3874448
node down,IM3928208
node down,IM3881085
remote site containing node saflftrhr01 unreachable,IM3907055
remote site containing node saprhumar01 unreachable,IM3938895
free space disk drive less mb,IM3923960
remote site containing node satxarlar01 unreachable,IM3925643
node down,IM3929970
remote site containing node sawaeveer01 unreachable,IM3925647
node down,IM3873109
free space disk drive less mb,IM3886798
node down,IM3899683
node down,IM3901902
node down,IM3922968
free space disk drive less mb,IM3912517
node down,IM3901906
6as down triggered application app 6as prod trigger out transactions failed,IM3869135
drive free space mb mb violated threshold mb,IM3882607
node down,IM3908528
free space disk drive less mb,IM3897478
free space disk drive less mb,IM3941098
node down,IM3905107
free space disk drive less mb,IM3869684
remote site containing node samocrcbr01 unreachable,IM3873216
remote site containing node sanvskycr01 unreachable,IM3918173
node down,IM3901614
node down,IM3901611
filesystem tmp exceed threshold,IM3933613
interface down,IM3886292
node down,IM3901618
free space disk drive less mb,IM3932214
free space disk drive less mb,IM3918317
primary nnm server cluster,IM3906881
process tools jdk jdk1 0 92 bin java dmule home tools mule lvo apigw211 lvo  voilated threshold,IM3933166
service 9ss rpp idmdatamartautomation state running,IM3886678
free space disk drive less mb,IM3934557
node down,IM3925515
node down,IM3925516
filesystem tmp exceed threshold,IM3924593
free space disk drive less mb,IM3882970
free space disk drive less mb,IM3906882
remote site containing node sapaphlyr01 unreachable,IM3892021
drive free space mb mb violated threshold mb,IM3905618
filesystem tmp exceed threshold,IM3892750
node down,IM3909941
node down,IM3905610
node down,IM3901723
node down,IM3901725
node down,IM3918403
free space disk drive less mb,IM3916746
node down,IM3925584
node down,IM3908701
node down,IM3877874
node down,IM3908706
node down,IM3908708
free space disk drive less mb,IM3891131
free space disk drive less mb,IM3915270
filesystem tmp exceed threshold,IM3915276
filesystem home exceed threshold,IM3940074
node down,IM3888145
free space disk drive less mb,IM3919590
drive free space mb mb violated threshold mb,IM3877734
paging file total usage exceeds threshold,IM3869466
filesystem tmp exceed threshold,IM3940293
node down,IM3876174
remote site containing node satxftwlr01 unreachable,IM3886890
free space disk drive less mb,IM3875890
service kiwi syslog server state running,IM3883827
free space disk drive less mb,IM3906906
remote site containing node sascflobr01 unreachable,IM3885439
free space disk drive less mb,IM3911773
free space disk drive less mb,IM3880639
free space disk drive less mb,IM3880638
node down,IM3896507
free space disk drive less mb,IM3892055
paging file total usage exceeds threshold,IM3871776
remote site containing node sascflobr01 unreachable,IM3898137
remote site containing node swpagtrab01 unreachable,IM3891220
node down,IM3898561
free space disk drive less mb,IM3911175
process tools jdk jdk1 0 92 bin java dmule home tools mule lvo apigw211 lvo  voilated threshold,IM3915413
remote site containing node swpagtrab01 unreachable,IM3891229
node down,IM3871514
free space disk drive less mb,IM3886851
access point down,IM3886852
interface down,IM3889164
access point down,IM3886857
node down,IM3904221
filesystem oracle u02 exceeded minor threshold,IM3879421
remote site containing node samanatbr01 unreachable,IM3936901
url http plswc161 corp sprint com ucmdb ui login page jsp failed load,IM3890267
node down,IM3876578
free space disk drive less mb,IM3937504
node down,IM3937508
paging file total usage exceeds threshold,IM3870356
filesystem var exceed threshold,IM3921852
paging file total usage exceeds threshold,IM3870359
node down,IM3902214
g5s down triggered application app g5s prod trigger out transactions failed,IM3889767
node down,IM3902216
node down,IM3902212
node down,IM3902213
node down,IM3894744
paging file total usage exceeds threshold,IM3873218
node down,IM3885655
node down,IM3942035
url https itam corp sprint com assetmanager failed load,IM3900527
drive free space mb mb violated threshold mb,IM3879559
remote site containing node rtnjsomab01 unreachable,IM3875874
free space disk drive less mb,IM3897189
free space disk drive less mb,IM3890850
free space disk drive less mb,IM3897184
free space disk drive less mb,IM3897187
free space disk drive less mb,IM3897180
free space disk drive less mb,IM3897183
node down,IM3905108
node down,IM3931333
filesystem tmp exceed threshold,IM3938405
free space disk drive less mb,IM3913488
remote site containing node sacaemoar01 unreachable,IM3893505
node down,IM3902101
node down,IM3902102
node down,IM3901998
node down,IM3928322
node down,IM3939105
node down,IM3879776
remote site containing node samabosir01 unreachable,IM3923028
paging file total usage exceeds threshold,IM3869045
node down,IM3922771
node down,IM3873023
node down,IM3882565
remote site containing node sahihonur01 unreachable,IM3937893
node down,IM3901864
free space disk drive less mb,IM3903965
paging file total usage exceeds threshold,IM3870000
filesystem tmp exceed threshold,IM3932026
node down,IM3913151
6as down triggered application app 6as prod trigger out transactions failed,IM3902361
free space disk drive less mb,IM3923974
access point down,IM3906060
filesystem oracle u02 exceeded minor threshold,IM3902562
access point down,IM3923979
node down,IM3907510
node down,IM3902565
node down,IM3901596
node down,IM3901595
remote site containing node samochear01 unreachable,IM3925639
remote site containing node sacafrsqr01 unreachable,IM3925638
remote site containing node satxelpir01 unreachable,IM3925637
node down,IM3925636
node down,IM3925630
node down,IM3901599
process tools jdk jdk1 0 92 bin java dmule home tools mule lvo apigw211 lvo  voilated threshold,IM3922685
drive free space mb mb violated threshold mb,IM3873448
free space disk drive less mb,IM3923779
node down,IM3872462
node down,IM3899679
remote site containing node sanjmltbr01 unreachable,IM3882362
remote site containing node satxarlar01 unreachable,IM3937254
remote site containing node samasthbr01 unreachable,IM3922997
free space disk drive less mb,IM3932111
node down,IM3901918
g5s down triggered application app g5s prod trigger out transactions failed,IM3917008
service kiwi syslog server state running,IM3901466
remote site containing node satxarlar01 unreachable,IM3901465
access point down,IM3894985
process tools jdk jdk1 0 92 bin java dmule home tools mule lvo apigw211 lvo  voilated threshold,IM3918542
paging file total usage exceeds threshold,IM3918093
interface down,IM3894989
node down,IM3908552
free space disk drive less mb,IM3932688
node down,IM3897465
process tools jdk jdk1 0 92 bin java dmule home tools mule lvo apigw211 lvo  voilated threshold,IM3913324
remote site containing node safltamrr01 unreachable,IM3877034
node down,IM3917313
interface down,IM3886444
free space disk drive less mb,IM3927921
free space disk drive less mb,IM3899890
node down,IM3901605
node down,IM3899895
drive free space mb mb violated threshold mb,IM3869057
process name ntpd owner ntp status minor condition currently running processes configured threshold,IM3909023
node down,IM3901608
node down,IM3886666
node down,IM3911337
node down,IM3934688
remote site containing node samocrcbr01 unreachable,IM3925565
node down,IM3925518
free space disk drive less mb,IM3932972
remote site containing node saflcrgar01 unreachable,IM3933974
filesystem tmp exceed threshold,IM3915645
remote site containing node satxhsobr01 unreachable,IM3925562
paging file total usage exceeds threshold,IM3872089
url http w911wvip nmcc sprintspectrum com e911 simplehome failed load,IM3940449
free space disk drive less mb,IM3898309
free space disk drive less mb,IM3880849
url https webservicesgateway sprint com services mvno querycsaservice v1 wsdl failed load,IM3888719
free space disk drive less mb,IM3904737
remote site containing node samafrmdr01 unreachable,IM3909950
filesystem home exceed threshold,IM3934753
interface down,IM3913922
free space disk drive less mb,IM3919303
remote site containing node sahihonur01 unreachable,IM3877105
node down,IM3878606
node down,IM3901735
remote site containing node satxhoudr01 unreachable,IM3887078
node down,IM3918435
node down,IM3918434
node down,IM3918433
node down,IM3878826
node down,IM3908771
remote site containing node sancraefr01 unreachable,IM3928920
remote site containing node sanvrenkr01 unreachable,IM3899327
free space disk drive less mb,IM3918329
free space disk drive less mb,IM3876617
remote site containing node sanystiar01 unreachable,IM3888158
service 9ss rpp idmdatamartautomation state running,IM3914846
free space disk drive less mb,IM3913816
paging file total usage exceeds threshold,IM3940598
node down,IM3888150
remote site containing node sacogrjbr01 unreachable,IM3921621
node down,IM3939447
node down,IM3882814
remote site containing node satnmadar01 unreachable,IM3889579
node down,IM3871699
node down,IM3885401
remote site containing node sawalakar01 unreachable,IM3875888
free space disk drive less mb,IM3943932
node down,IM3943934
free space disk drive less mb,IM3930679
filesystem tmp exceed threshold,IM3921533
filesystem tmp exceed threshold,IM3935808
filesystem tmp exceed threshold,IM3920668
remote site containing node sakyloier01 unreachable,IM3930451
remote site containing node sacogrjbr01 unreachable,IM3921448
remote site containing node savavnafr01 unreachable,IM3918675
node down,IM3885719
free space disk drive less mb,IM3944816
access point down,IM3904234
process tools jdk jdk1 0 92 bin java dmule home tools mule lvo apigw211 lvo  voilated threshold,IM3938068
interface down,IM3895591
free space disk drive less mb,IM3936917
node down,IM3876769
paging file total usage exceeds threshold,IM3895358
filesystem oracle u02 exceeded minor threshold,IM3900082
remote site containing node saflmimnr01 unreachable,IM3876762
node down,IM3897268
remote site containing node rtnjsomab01 unreachable,IM3875264
node down,IM3897266
free space disk drive less mb,IM3920866
remote site containing node sawatcmdr01 unreachable,IM3889752
node down,IM3901818
paging file total usage exceeds threshold,IM3869902
filesystem home exceed threshold,IM3934829
free space disk drive less mb,IM3903357
remote site containing node sacogrjbr01 unreachable,IM3921999
free space disk drive less mb,IM3875868
interface down,IM3900550
access point down,IM3895171
free space disk drive less mb,IM3870838
filesystem logs 9u7 production exceeded minor threshold,IM3874110
node down,IM3906201
free space disk drive less mb,IM3929626
node down,IM3922036
process tools jdk jdk1 0 92 bin java dmule home tools mule lvo apigw211 lvo  voilated threshold,IM3924186
cos retail issue resolution,IM3938477
filesystem tmp exceed threshold,IM3938476
node down,IM3902178
node down,IM3939139
filesystem home exceed threshold,IM3884924
node down,IM3889625
node down,IM3902176
remote site containing node sacarcucr01 unreachable,IM3912145
drive free space mb mb violated threshold mb,IM3928044
node down,IM3916302
node down,IM3922763
node down,IM3873059
paging file total usage exceeds threshold,IM3872502
remote site containing node sanvrenkr01 unreachable,IM3872509
node down,IM3917125
node down,IM3917126
remote site containing node sacapdlar01 unreachable,IM3875511
free space disk drive less mb,IM3936265
remote site containing node sacolakcr01 unreachable,IM3936262
filesystem tmp exceed threshold,IM3881715
free space disk drive less mb,IM3937799
node down,IM3902004
remote site containing node satxconer01 unreachable,IM3909701
g5s down triggered application app g5s prod trigger out transactions failed,IM3937797
access point down,IM3894222
remote site containing node sanjwooar01 unreachable,IM3902552
node down,IM3922506
node down,IM3881979
node down,IM3925627
node down,IM3925624
node down,IM3925622
free space disk drive less mb,IM3922011
node down,IM3922693
filesystem home exceed threshold,IM3873476
filesystem tmp exceed threshold,IM3923742
node down,IM3878166
node down,IM3901927
node down,IM3901926
node down,IM3901923
filesystem tmp exceed threshold,IM3891138
node down,IM3901921
filesystem home exceed threshold,IM3936312
free space disk drive less mb,IM3885384
free space disk drive less mb,IM3909148
node down,IM3873870
g5s down triggered application app g5s prod trigger out transactions failed,IM3886386
process tools jdk jdk1 0 92 bin java dmule home tools mule lvo apigw211 lvo  voilated threshold,IM3942361
node down,IM3922430
drive free space mb mb violated threshold mb,IM3922437
filesystem tmp exceed threshold,IM3925750
remote site containing node sacacabar01 unreachable,IM3922189
free space disk drive less mb,IM3909891
free space disk drive less mb,IM3878290
g5s down triggered application app g5s prod trigger out transactions failed,IM3877026
free space disk drive less mb,IM3899791
service 9ss rpp idmdatamartautomation state running,IM3913362
node down,IM3873242
free space disk drive less mb,IM3917491
free space disk drive less mb,IM3925288
paging file total usage exceeds threshold,IM3869647
filesystem home exceed threshold,IM3933419
remote site containing node sanvrenkr01 unreachable,IM3877591
free space disk drive less mb,IM3898337
drive free space mb mb violated threshold mb,IM3915655
filesystem tmp exceed threshold,IM3882955
node down,IM3925579
node down,IM3925543
free space disk drive less mb,IM3872257
interface down,IM3869467
filesystem logs 9u7 production exceeded minor threshold,IM3910100
node down,IM3888140
remote site containing node swohcolib01 unreachable,IM3897855
node down,IM3901708
node down,IM3901707
free space disk drive less mb,IM3890587
node down,IM3901704
filesystem oracle u02 exceeded minor threshold,IM3876071
node down,IM3919682
node down,IM3919681
free space disk drive less mb,IM3891686
service 9ss rpp idmdatamartautomation state running,IM3930998
free space disk drive less mb,IM3923984
filesystem oracle u02 exceeded minor threshold,IM3898750
free space disk drive less mb,IM3943839
free space disk drive less mb,IM3925372
free space disk drive less mb,IM3885318
remote site containing node sawioshar01 unreachable,IM3908760
node down,IM3892647
node down,IM3889963
node down,IM3904654
node down,IM3944006
node down,IM3941502
paging file total usage exceeds threshold,IM3869485
access point down,IM3869484
remote site containing node saflccrar01 unreachable,IM3944001
free space disk drive less mb,IM3941509
paging file total usage exceeds threshold,IM3918337
free space disk drive less mb,IM3918333
remote site containing node sancdurqr01 unreachable,IM3889565
paging file total usage exceeds threshold,IM3871681
filesystem tmp exceed threshold,IM3944265
drive free space mb violated threshold mb,IM3876153
remote site containing node saflmirar01 unreachable,IM3924158
remote site containing node saflccrar01 unreachable,IM3924152
access point down,IM3888183
remote site containing node sautsgear01 unreachable,IM3924154
node down,IM3889636
paging file total usage exceeds threshold,IM3871752
filesystem tmp exceed threshold,IM3880384
paging file total usage exceeds threshold,IM3940636
remote site containing node sahihonur01 unreachable,IM3907449
node down,IM3886474
node down,IM3876851
node down,IM3921054
filesystem var log exceed threshold,IM3921058
remote site containing node sawavandr01 unreachable,IM3876587
remote site containing node samirosbr01 unreachable,IM3888985
node down,IM3875984
node down,IM3930686
drive free space mb mb violated threshold mb,IM3904240
node down,IM3875982
node down,IM3876884
free space disk drive less mb,IM3906812
network associates mcshield service running,IM3891069
please investigate,IM3891069
free space disk drive less mb,IM3916824
drive free space mb mb violated threshold mb,IM3876882
remote site containing node sacaemoar01 unreachable,IM3911331
filesystem oracle u02 exceeded minor threshold,IM3876889
process tools ews httpd sbin httpd worker voilated threshold,IM3924020
free space disk drive less mb,IM3880761
node down,IM3877857
free space disk drive less mb,IM3880769
node down,IM3871224
paging file total usage exceeds threshold,IM3870330
paging file total usage exceeds threshold,IM3894098
node down,IM3870332
free space disk drive less mb,IM3884734
node down,IM3889588
g5s down triggered application app g5s prod trigger out transactions failed,IM3895148
free space disk drive less mb,IM3899564
filesystem home exceed threshold,IM3934812
vmware tools service running,IM3911205
free space disk drive less mb,IM3904394
process tools jdk jdk1 0 92 bin java dmule home tools mule lvo apigw211 lvo  voilated threshold,IM3942360
url https webservicesgateway sprint com services mvno querycsaservice v1 wsdl failed load,IM3890982
free space disk drive less mb,IM3894788
access point down,IM3942363
free space disk drive less mb,IM3904860
remote site containing node sacanorar01 unreachable,IM3920706
free space disk drive less mb,IM3893533
filesystem oracle u02 exceeded minor threshold,IM3897320
node down,IM3936411
paging file total usage exceeds threshold,IM3870246
filesystem tmp exceed threshold,IM3934328
service kiwi syslog server state running,IM3939123
node down,IM3893835
node down,IM3902168
node down,IM3893836
node down,IM3939129
free space disk drive less mb,IM3874585
free space disk drive less mb,IM3921646
process tools jdk jdk1 0 92 bin java dmule home tools mule lvo apigw211 lvo  voilated threshold,IM3927052
free space disk drive less mb,IM3903701
free space disk drive less mb,IM3907284
swap utilization average 30m,IM3907285
node down,IM3923009
node down,IM3894309
filesystem tmp exceed threshold,IM3945211
free space disk drive less mb,IM3905356
free space disk drive less mb,IM3873044
filesystem home exceed threshold,IM3936259
filesystem var exceed threshold,IM3936258
free space disk drive less mb,IM3887838
free space disk drive less mb,IM3906396
filesystem tmp exceed threshold,IM3936256
free space disk drive less mb,IM3918296
filesystem tmp exceed threshold,IM3938510
node down,IM3926909
paging file total usage exceeds threshold,IM3871827
free space disk drive less mb,IM3893237
remote site containing node swohcolib01 unreachable,IM3897794
free space disk drive less mb,IM3879197
node down,IM3902014
node down,IM3893230
free space disk drive less mb,IM3894544
remote site containing node sagaslvbr01 unreachable,IM3894233
node down,IM3893238
node down,IM3925612
node down,IM3901931
node down,IM3901934
node down,IM3901935
node down,IM3917062
service kiwi syslog server state running,IM3870469
node down,IM3936325
node down,IM3936322
node down,IM3936321
free space disk drive less mb,IM3932171
drive free space mb mb violated threshold mb,IM3928475
drive free space mb mb violated threshold mb,IM3928470
paging file total usage exceeds threshold,IM3898920
g5s down triggered application app g5s prod trigger out transactions failed,IM3932312
url http internalshop corp sprint com nasapp emt action emtlogin failed load,IM3932313
remote site containing node savaalear01 unreachable,IM3922401
node connection down,IM3904401
paging file total usage exceeds threshold,IM3905136
process tools jdk jdk1 0 92 bin java dmule home tools mule lvo apigw211 lvo  voilated threshold,IM3927947
node down,IM3901626
node down,IM3901620
filesystem home exceed threshold,IM3937127
node down,IM3901623
node down,IM3904145
paging file total usage exceeds threshold,IM3912499
remote site containing node cncasdggb01 unreachable,IM3922536
paging file total usage exceeds threshold,IM3868709
6as down triggered application app 6as prod trigger out transactions failed,IM3932409
paging file total usage exceeds threshold,IM3869444
free space disk drive less mb,IM3877569
6as down triggered application app 6as prod trigger out transactions failed,IM3932403
remote site containing node saaztucgr01 unreachable,IM3925812
node down,IM3898324
free space disk drive less mb,IM3932952
filesystem home exceed threshold,IM3904717
remote site containing node samochear01 unreachable,IM3874920
filesystem tmp exceed threshold,IM3905623
free space disk drive less mb,IM3879193
filesystem var exceed threshold,IM3929980
interface down,IM3878337
node down,IM3901717
free space disk drive less mb,IM3939802
filesystem test2 khk exceeded major threshold,IM3878339
remote site containing node saflorazr01 unreachable,IM3894549
node down,IM3912724
free space disk drive less mb,IM3886739
free space disk drive less mb,IM3934028
remote site containing node sakswchqr01 unreachable,IM3933046
free space disk drive less mb,IM3925381
filesystem tmp exceed threshold,IM3941993
free space disk drive less mb,IM3925387
remote site containing node sanystiar01 unreachable,IM3908753
node down,IM3910094
free space disk drive less mb,IM3892308
node down,IM3892658
remote site containing node saflcrgar01 unreachable,IM3944011
remote site containing node saflftlnr01 unreachable,IM3944012
node down,IM3910301
filesystem home exceed threshold,IM3880420
remote site containing node saflftrhr01 unreachable,IM3944017
drive free space mb mb violated threshold mb,IM3869492
node down,IM3941513
node down,IM3941510
drive free space mb mb violated threshold mb,IM3869494
paging file total usage exceeds threshold,IM3869499
filesystem home exceed threshold,IM3935316
node down,IM3900390
node down,IM3919585
node down,IM3919586
node down,IM3924144
remote site containing node sascflobr01 unreachable,IM3924006
service 9ss rpp ondemandbackgroundreporting state running,IM3919569
access point down,IM3884391
g5s down triggered application app g5s prod trigger out transactions failed,IM3891279
free space disk drive less mb,IM3928878
free space disk drive less mb,IM3931837
free space disk drive less mb,IM3896956
filesystem tmp exceed threshold,IM3891273
node down,IM3880880
filesystem tmp exceed threshold,IM3919456
free space disk drive less mb,IM3940482
remote site containing node savaarlir01 unreachable,IM3936355
free space disk drive less mb,IM3875062
power supply nxmolesbx31 malfunctioning,IM3940809
remote site containing node sailgevbr01 unreachable,IM3873540
paging file total usage exceeds threshold,IM3871034
node down,IM3908435
free space disk drive less mb,IM3891096
filesystem tmp exceed threshold,IM3938048
url http cpp corp sprint com failed load,IM3911325
free space disk drive less mb,IM3904096
remote site containing node samabosir01 unreachable,IM3911320
node down,IM3876898
access point down,IM3876899
node down,IM3905322
remote site containing node sautafoar01 unreachable,IM3891309
sfwdbs ds nol prod dba critical mon instance status plss5005 ndwp1012,IM3930235
remote site containing node saflbrnar01 unreachable,IM3871256
remote site containing node satxarlar01 unreachable,IM3874323
node down,IM3879690
node down,IM3927609
free space disk drive less mb,IM3895156
remote site containing node sacapdlar01 unreachable,IM3931496
port host unreachable,IM3911219
remote site containing node satxarlar01 unreachable,IM3912423
remote site containing node saprhumar01 unreachable,IM3937938
remote site containing node saprcagcr01 unreachable,IM3874138
filesystem home exceed threshold,IM3936406
paging file total usage exceeds threshold,IM3931303
filesystem home exceed threshold,IM3938457
filesystem home exceed threshold,IM3936403
free space disk drive less mb,IM3931306
free space disk drive less mb,IM3943570
node down,IM3902157
node down,IM3902156
filesystem tmp exceed threshold,IM3889642
remote site containing node sacachvdr01 unreachable,IM3893828
filesystem var exceed threshold,IM3907271
node down,IM3929048
interface down,IM3874629
remote site containing node sacaemoar01 unreachable,IM3928069
node down,IM3896799
filesystem tmp exceed threshold,IM3916105
free space disk drive less mb,IM3913166
filesystem home exceed threshold,IM3936320
free space disk drive less mb,IM3930511
free space disk drive less mb,IM3897021
node down,IM3902027
node down,IM3902026
free space disk drive less mb,IM3874481
node down,IM3902221
node down,IM3925602
node down,IM3925603
drive free space mb mb violated threshold mb,IM3895971
free space disk drive less mb,IM3945336
node down,IM3901949
node down,IM3901948
service kiwi syslog server state running,IM3883735
node down,IM3873412
node down,IM3901945
node down,IM3901944
filesystem home exceed threshold,IM3917074
free space disk drive less mb,IM3883873
url https itam corp sprint com assetmanager failed load,IM3926396
remote site containing node samdgaicr01 unreachable,IM3936333
remote site containing node sacachnar01 unreachable,IM3939327
free space disk drive less mb,IM3932144
free space disk drive less mb,IM3901435
node down,IM3908963
drive free space kb mb violated threshold mb,IM3907655
node down,IM3894745
free space disk drive less mb,IM3922415
free space disk drive less mb,IM3922418
free space disk drive less mb,IM3898086
node down,IM3869397
free space disk drive less mb,IM3908369
node down,IM3873256
paging file total usage exceeds threshold,IM3869392
filesystem home exceed threshold,IM3933308
free space disk drive less mb,IM3905384
node down,IM3873097
node down,IM3922528
node down,IM3901898
node down,IM3901897
node down,IM3901892
node down,IM3901890
node down,IM3925559
filesystem tmp exceed threshold,IM3924821
remote site containing node satnmadar01 unreachable,IM3917692
node down,IM3942033
node down,IM3925550
free space disk drive less mb,IM3904708
node down,IM3909984
free space disk drive less mb,IM3904704
remote site containing node sancwinfr01 unreachable,IM3898594
filesystem var exceed threshold,IM3905654
access point down,IM3887037
node down,IM3929994
filesystem tmp exceed threshold,IM3941456
node down,IM3873322
remote site containing node sailchoar01 unreachable,IM3911224
node down,IM3901767
free space disk drive less mb,IM3917213
node down,IM3901769
filesystem home exceed threshold,IM3941649
remote site containing node saminover01 unreachable,IM3908740
remote site containing node saohfarar01 unreachable,IM3908743
node down,IM3892666
g5s down triggered application app g5s prod trigger out transactions failed,IM3889909
free space disk drive less mb,IM3926600
free space disk drive less mb,IM3892461
node down,IM3934654
free space disk drive less mb,IM3886101
node down,IM3876135
free space disk drive less mb,IM3889349
node down,IM3919007
node down,IM3876423
free space disk drive less mb,IM3919003
node down,IM3873631
node down,IM3892683
node down,IM3892685
node down,IM3892684
filesystem tmp exceed threshold,IM3885470
paging file total usage exceeds threshold,IM3870136
filesystem tmp exceed threshold,IM3938325
process tools jdk jdk1 0 92 bin java dmule home tools mule lvo apigw211 lvo  voilated threshold,IM3942344
node down,IM3896512
filesystem tmp exceed threshold,IM3905515
node down,IM3898173
free space disk drive less mb,IM3873147
remote site containing node sancjnvcr01 unreachable,IM3915693
node down,IM3892202
free space disk drive less mb,IM3886819
filesystem oracle u02 exceeded minor threshold,IM3871797
node down,IM3876041
node down,IM3876047
drive free space mb mb violated threshold mb,IM3904262
free space disk drive less mb,IM3906835
free space disk drive less mb,IM3937125
url https itam corp sprint com assetmanager failed load,IM3900700
free space disk drive less mb,IM3895525
free space disk drive less mb,IM3870311
filesystem home exceed threshold,IM3935059
paging file total usage exceeds threshold,IM3870319
process tools jdk jdk1 0 92 bin java dmule home tools mule lvo apigw211 lvo  voilated threshold,IM3921814
filesystem oracle u02 exceeded minor threshold,IM3886924
filesystem tmp exceed threshold,IM3879682
power supply nxmolesbx31 malfunctioning,IM3939493
remote site containing node sancgrbkr01 unreachable,IM3879514
free space disk drive less mb,IM3932779
node down,IM3928325
remote site containing node satxhsobr01 unreachable,IM3890139
node down,IM3942292
free space disk drive less mb,IM3942307
free space disk drive less mb,IM3920723
filesystem home exceed threshold,IM3904846
node down,IM3936430
filesystem tmp exceed threshold,IM3937439
filesystem var exceed threshold,IM3936434
node down,IM3925548
filesystem var exceed threshold,IM3935698
free space disk drive less mb,IM3874487
node down,IM3928079
node down,IM3902146
drive free space mb mb violated threshold mb,IM3904278
drive free space mb mb violated threshold mb,IM3902638
node down,IM3902148
free space disk drive less mb,IM3875948
node down,IM3927704
free space disk drive less mb,IM3879205
node down,IM3943142
node down,IM3920037
node down,IM3920033
remote site containing node sagalithr01 unreachable,IM3909377
free space disk drive less mb,IM3929701
free space disk drive less mb,IM3939002
remote site containing node saflmirar01 unreachable,IM3925817
node down,IM3936508
free space disk drive less mb,IM3913198
free space disk drive less mb,IM3903929
node down,IM3902038
node down,IM3906028
node down,IM3902036
node down,IM3902037
free space disk drive less mb,IM3932084
free space disk drive less mb,IM3932082
node down,IM3922647
node down,IM3899632
paging file total usage exceeds threshold,IM3873405
free space disk drive less mb,IM3883721
node down,IM3923731
node down,IM3937742
remote site containing node satxautyr01 unreachable,IM3917048
node down,IM3901952
remote site containing node satxconer01 unreachable,IM3873408
remote site containing node sacarocar01 unreachable,IM3873409
node down,IM3936341
node down,IM3936343
paging file total usage exceeds threshold,IM3870445
free space disk drive less mb,IM3897162
filesystem var exceed threshold,IM3937699
node down,IM3881348
drive free space mb mb violated threshold mb,IM3907640
node down,IM3922884
remote site containing node sacalanxr01 unreachable,IM3925706
node down,IM3904461
filesystem tmp exceed threshold,IM3899746
node down,IM3913365
node down,IM3873240
free space disk drive less mb,IM3927965
free space disk drive less mb,IM3873089
filesystem tmp exceed threshold,IM3886247
aggregator connection nxmolesbx05 port channel313 nxmolesbx64 port channel313 down,IM3901552
node down,IM3901882
node down,IM3901884
free space disk drive less mb,IM3911195
node down,IM3901887
node down,IM3908130
node down,IM3901866
node down,IM3909998
node down,IM3892073
filesystem oracle u02 exceeded minor threshold,IM3873332
service 9ss rpp ondemandbackgroundreporting state running,IM3897798
access point down,IM3873335
access point down,IM3873338
node down,IM3886413
node down,IM3901776
node down,IM3882050
paging file total usage exceeds threshold,IM3918059
free space disk drive less mb,IM3898906
node down,IM3919670
paging file total usage exceeds threshold,IM3869527
g5s down triggered application app g5s prod trigger out transactions failed,IM3869525
node down,IM3940792
remote site containing node sacaricar01 unreachable,IM3880972
remote site containing node saprcagcr01 unreachable,IM3918524
remote site containing node samokitar01 unreachable,IM3936271
node down,IM3915599
free space disk drive less mb,IM3918139
remote site containing node saprhumar01 unreachable,IM3940004
node down,IM3876306
remote site containing node satxcpaar01 unreachable,IM3918521
free space disk drive less mb,IM3897111
free space disk drive less mb,IM3897412
interface down,IM3894928
filesystem oracle u02 exceeded minor threshold,IM3894929
free space disk drive less mb,IM3941843
free space disk drive less mb,IM3888354
remote site containing node sanystiar01 unreachable,IM3876124
drive free space mb mb violated threshold mb,IM3876125
remote site containing node saprcagcr01 unreachable,IM3889791
free space disk drive less mb,IM3885444
node down,IM3897258
drive free space mb mb violated threshold mb,IM3876129
free space disk drive less mb,IM3938332
drive free space mb mb violated threshold mb,IM3868875
process tools jdk jdk1 0 92 bin java dmule home tools mule lvo apigw211 lvo  voilated threshold,IM3943979
node down,IM3943973
remote site containing node sakyloier01 unreachable,IM3904119
access point down,IM3921069
free space disk drive less mb,IM3896202
6wn down triggered application app 6wn prod trigger out transactions failed,IM3888107
node down,IM3891255
filesystem tmp exceed threshold,IM3925231
process name sshd owner root status major condition currently running processes configured threshold,IM3941799
free space disk drive less mb,IM3894856
filesystem tmp exceed threshold,IM3892213
remote site containing node sanvrenkr01 unreachable,IM3877320
remote site containing node rtwinblab01 unreachable,IM3918475
free space disk drive less mb,IM3921717
free space disk drive less mb,IM3931784
node down,IM3876056
node down,IM3876057
free space disk drive less mb,IM3879174
6wn down triggered application app 6wn prod trigger out transactions failed,IM3903556
paging file total usage exceeds threshold,IM3916871
filesystem var exceed threshold,IM3904072
free space disk drive less mb,IM3921398
free space disk drive less mb,IM3880757
remote site containing node sautafoar01 unreachable,IM3891326
free space disk drive less mb,IM3871659
free space disk drive less mb,IM3900916
remote site containing node sancraefr01 unreachable,IM3897223
free space disk drive less mb,IM3895396
node down,IM3921800
node down,IM3885625
remote site containing node sakyloier01 unreachable,IM3921809
filesystem tmp exceed threshold,IM3900128
free space disk drive less mb,IM3895400
free space disk drive less mb,IM3900602
node down,IM3875828
interface down,IM3897319
remote site containing node sancchtcr01 unreachable,IM3874792
node down,IM3916295
free space disk drive less mb,IM3870275
filesystem home exceed threshold,IM3936422
remote site containing node rtalbirfb01 unreachable,IM3922518
free space disk drive less mb,IM3921938
free space disk drive less mb,IM3931365
remote site containing node swpagtrab01 unreachable,IM3939173
remote site containing node cndcwaspb01 unreachable,IM3921930
drive free space mb mb violated threshold mb,IM3893036
service 9ss rpp idmdatamartautomation state running,IM3902602
remote site containing node sacarocar01 unreachable,IM3890344
node down,IM3922686
free space disk drive less mb,IM3927570
remote site containing node saflcspar01 unreachable,IM3884980
node down,IM3902199
node down,IM3902197
node down,IM3944014
node down,IM3902195
free space disk drive less mb,IM3927853
node down,IM3937590
node down,IM3941512
node down,IM3889962
node down,IM3902047
node down,IM3902043
free space disk drive less mb,IM3942840
process tools jdk jdk1 0 92 bin java dmule home tools mule lvo apigw211 lvo  voilated threshold,IM3942337
node down,IM3902285
filesystem tmp exceed threshold,IM3911402
remote site containing node rtmdbltab11 unreachable,IM3899999
node down,IM3873433
free space disk drive less mb,IM3870274
remote site containing node saohhowar01 unreachable,IM3905098
node down,IM3901963
remote site containing node cnnjwoocb51 unreachable,IM3878126
node down,IM3901960
node down,IM3901965
node down,IM3937778
remote site containing node sakswchqr01 unreachable,IM3937777
node down,IM3937776
node down,IM3901969
node down,IM3936423
remote site containing node swpagtrab01 unreachable,IM3936356
paging file total usage exceeds threshold,IM3901412
free space disk drive less mb,IM3912807
remote site containing node samdrocar01 unreachable,IM3936350
remote site containing node sapawasar01 unreachable,IM3936351
free space disk drive less mb,IM3882137
node down,IM3906727
filesystem oracle u02 exceeded minor threshold,IM3907100
free space disk drive less mb,IM3899191
filesystem tmp exceed threshold,IM3893111
filesystem tmp exceed threshold,IM3899753
remote site containing node satxtwlar01 unreachable,IM3929840
paging file total usage exceeds threshold,IM3870378
drive free space mb violated threshold mb,IM3876145
drive free space mb violated threshold mb,IM3894294
node down,IM3908832
url https webservicesgateway sprint com services mvno querycsaservice v1 wsdl failed load,IM3901561
node down,IM3906342
process production q1s interwoven foundationlibraries jdk bin java voilated threshold,IM3932451
process production q1s interwoven teamsite bin iwproxy voilated threshold,IM3932450
process tools jboss config pvmkc254 4wn production sales4 conf voilated threshold,IM3925826
process bin sh production q1s interwoven applicationcontainer bin iw jboss run sh voilated threshold,IM3932452
paging file total usage exceeds threshold,IM3868738
node down,IM3922277
free space disk drive less mb,IM3905671
remote site containing node sacafrsqr01 unreachable,IM3908293
paging file total usage exceeds threshold,IM3913226
node down,IM3901743
filesystem exceed threshold,IM3917236
filesystem tmp exceed threshold,IM3917237
node down,IM3901746
filesystem exceed threshold,IM3926596
node down,IM3901989
node down,IM3902236
filesystem tmp exceed threshold,IM3912590
node down,IM3901985
node down,IM3890718
svm metadevice problem found please run metastat correct issues plssa259,IM3941941
remote site containing node swflsarib11 unreachable,IM3886568
free space disk drive less mb,IM3919645
free space disk drive less mb,IM3918263
remote site containing node samasthbr01 unreachable,IM3941495
paging file total usage exceeds threshold,IM3869514
remote site containing node satxftwlr01 unreachable,IM3944449
network associates mcshield service running,IM3918265
please investigate,IM3918265
remote site containing node sanvrenkr01 unreachable,IM3884272
remote site containing node sancchrxr01 unreachable,IM3891403
free space disk drive less mb,IM3889921
free space disk drive less mb,IM3887740
free space disk drive less mb,IM3869359
free space disk drive less mb,IM3886163
interface down,IM3892440
node down,IM3924845
node down,IM3941786
remote site containing node sanvrenkr01 unreachable,IM3877557
node down,IM3935987
remote site containing node sacathoar01 unreachable,IM3934107
remote site containing node sascsmrbr01 unreachable,IM3888252
free space disk drive less mb,IM3934457
remote site containing node satxchiar01 unreachable,IM3899806
remote site containing node sasccmbtr01 unreachable,IM3919806
filesystem tmp exceed threshold,IM3938304
free space disk drive less mb,IM3924663
process tools jdk jdk1 0 92 bin java dmule home tools mule lvo apigw211 lvo  voilated threshold,IM3921019
process name crond owner root status minor condition currently running processes configured threshold,IM3922051
free space disk drive less mb,IM3904101
node down,IM3898555
free space disk drive less mb,IM3886760
node down,IM3876066
remote site containing node saflftrhr01 unreachable,IM3919734
free space disk drive less mb,IM3912370
remote site containing node saflbrnar01 unreachable,IM3916865
remote site containing node sancchrxr01 unreachable,IM3916860
remote site containing node sautafoar01 unreachable,IM3891336
service 9ss rpp idmdatamartautomation state running,IM3885589
free space disk drive less mb,IM3911066
node down,IM3934295
remote site containing node samocrcbr01 unreachable,IM3943893
free space disk drive less mb,IM3892536
drive free space mb mb violated threshold mb,IM3876116
remote site containing node sacaemoar01 unreachable,IM3892531
drive free space mb mb violated threshold mb,IM3876114
remote site containing node sasccmbtr01 unreachable,IM3943413
remote site containing node sancchtcr01 unreachable,IM3931516
interface down,IM3889781
remote site containing node sacogrjbr01 unreachable,IM3889784
free space disk drive less mb,IM3892278
remote site containing node saflbrnar01 unreachable,IM3915962
filesystem var exceed threshold,IM3935948
node down,IM3870846
filesystem oracle u02 exceeded minor threshold,IM3894127
remote site containing node satxausir01 unreachable,IM3935188
process tools jdk jdk1 0 92 bin java dmule home tools mule lvo apigw211 lvo  voilated threshold,IM3927925
free space disk drive less mb,IM3895439
paging file total usage exceeds threshold,IM3920647
paging file total usage exceeds threshold,IM3870208
paging file total usage exceeds threshold,IM3870205
remote site containing node sainindwr01 unreachable,IM3895612
free space disk drive less mb,IM3931355
free space disk drive less mb,IM3931354
remote site containing node swpagtrab01 unreachable,IM3939167
free space disk drive less mb,IM3893870
remote site containing node swpagtrab01 unreachable,IM3939163
free space disk drive less mb,IM3894697
node down,IM3928019
free space disk drive less mb,IM3879222
free space disk drive less mb,IM3876738
free space disk drive less mb,IM3894699
free space disk drive less mb,IM3894050
network associates mcshield service running,IM3899892
please investigate,IM3899892
file prod e 8ts application connect ci scenarios eventin logs eln2en log modified last minutes,IM3904917
filesystem home exceed threshold,IM3871264
node down,IM3875966
free space disk drive less mb,IM3875788
free space disk drive less mb,IM3879006
service 9ss rpp idmdatamartautomation state running,IM3870511
filesystem tmp exceed threshold,IM3885028
free space disk drive less mb,IM3938557
node down,IM3937581
filesystem home exceed threshold,IM3936299
6wn down triggered application app 6wn prod trigger out transactions failed,IM3936298
node down,IM3901593
filesystem oracle u02 exceeded minor threshold,IM3881030
paging file total usage exceeds threshold,IM3871860
node down,IM3902059
node down,IM3902054
node down,IM3902052
node down,IM3902050
node down,IM3902299
free space disk drive less mb,IM3916732
node down,IM3902296
node down,IM3902297
free space disk drive less mb,IM3923139
paging file total usage exceeds threshold,IM3870193
drive free space mb mb violated threshold mb,IM3894279
node down,IM3899961
free space disk drive less mb,IM3872910
filesystem tmp exceed threshold,IM3923714
secondary nnm server cluster,IM3905242
node down,IM3901975
filesystem home exceed threshold,IM3936369
node down,IM3901971
remote site containing node cndcwaspb01 unreachable,IM3936362
node down,IM3901979
paging file total usage exceeds threshold,IM3870424
paging file total usage exceeds threshold,IM3870427
filesystem home exceed threshold,IM3871910
free space disk drive less mb,IM3882108
remote site containing node swflsarib11 unreachable,IM3887966
free space disk drive less mb,IM3901409
node down,IM3906752
node down,IM3945259
url http internalshop corp sprint com nasapp emt action emtlogin failed load,IM3901570
drive free space mb mb violated threshold mb,IM3869038
url https idmrpts corp sprint com failed load,IM3911324
node down,IM3908803
remote site containing node sanynycsr01 unreachable,IM3908802
free space disk drive less mb,IM3882211
remote site containing node sanvrenkr01 unreachable,IM3909534
remote site containing node sacasdhkr01 unreachable,IM3925561
remote site containing node cncasdggb01 unreachable,IM3922281
free space disk drive less mb,IM3922282
free space disk drive less mb,IM3898304
filesystem tmp exceed threshold,IM3922228
node down,IM3925589
process production q1s interwoven teamsite iw webd bin iwwebd voilated threshold,IM3932449
free space disk drive less mb,IM3908241
node down,IM3908240
free space disk drive less mb,IM3905090
filesystem var exceed threshold,IM3922046
paging file total usage exceeds threshold,IM3905666
node down,IM3908175
free space disk drive less mb,IM3897773
node down,IM3901759
node down,IM3901750
filesystem tmp exceed threshold,IM3918075
node down,IM3901999
remote site containing node sacaricar01 unreachable,IM3886354
filesystem tmp exceed threshold,IM3917084
node down,IM3901994
paging file total usage exceeds threshold,IM3871737
drive free space mb mb violated threshold mb,IM3869502
filesystem tmp exceed threshold,IM3941483
remote site containing node satxftwlr01 unreachable,IM3887081
paging file total usage exceeds threshold,IM3869509
free space disk drive less mb,IM3891431
node down,IM3898702
service kiwi syslog server state running,IM3894900
process tools jdk jdk1 0 92 bin java dmule home tools mule lvo apigw211 lvo  voilated threshold,IM3933868
free space disk drive less mb,IM3892459
node down,IM3876326
filesystem var exceed threshold,IM3921768
remote site containing node sagaslvbr01 unreachable,IM3898490
free space disk drive less mb,IM3913217
remote site containing node swncdrhbb01 unreachable,IM3918383
remote site containing node sancdurqr01 unreachable,IM3918382
free space disk drive less mb,IM3886174
filesystem home exceed threshold,IM3884512
process name sshd owner root status major condition currently running processes configured threshold,IM3941794
free space disk drive less mb,IM3901198
node down,IM3917052
remote site containing node saflftlnr01 unreachable,IM3924181
free space disk drive less mb,IM3887793
node down,IM3901964
remote site containing node sacarocar01 unreachable,IM3884193
free space disk drive less mb,IM3876692
free space disk drive less mb,IM3941405
remote site containing node satxausir01 unreachable,IM3942172
paging file total usage exceeds threshold,IM3940685
mountpoints become read drelf335,IM3940684
remote site containing node cnmdelkad53 unreachable,IM3905470
free space disk drive less mb,IM3892988
free space disk drive less mb,IM3921005
remote site containing node sascsmrbr01 unreachable,IM3934592
paging file total usage exceeds threshold,IM3944459
drive free space mb mb violated threshold mb,IM3897591
remote site containing node sacogrjbr01 unreachable,IM3921226
system utilization exceeded,IM3935222
node down,IM3919729
remote site containing node sautafoar01 unreachable,IM3891292
paging file total usage exceeds threshold,IM3868920
drive free space mb mb violated threshold mb,IM3868922
free space disk drive less mb,IM3868927
free space disk drive less mb,IM3916854
drive free space mb mb violated threshold mb,IM3868929
service kiwi syslog server state running,IM3918927
free space disk drive less mb,IM3904057
node down,IM3905505
node down,IM3924248
paging file total usage exceeds threshold,IM3871675
node down,IM3902005
filesystem tmp exceed threshold,IM3891183
filesystem home exceed threshold,IM3932474
remote site containing node sanjmtlbr01 unreachable,IM3891184
remote site containing node samanatbr01 unreachable,IM3877446
remote site containing node sacachnar01 unreachable,IM3943400
node down,IM3880029
free space disk drive less mb,IM3920510
node down,IM3880022
free space disk drive less mb,IM3930743
free space disk drive less mb,IM3940994
free space disk drive less mb,IM3920190
filesystem tmp exceed threshold,IM3929460
node down,IM3870852
node down,IM3885487
node down,IM3885485
node down,IM3885484
node down,IM3870858
filesystem tmp exceed threshold,IM3912298
node down,IM3891766
free space disk drive less mb,IM3931344
node down,IM3931433
free space disk drive less mb,IM3931340
filesystem var log exceed threshold,IM3921912
node down,IM3881136
interface down,IM3936754
remote site containing node sacarcucr01 unreachable,IM3939196
free space disk drive less mb,IM3879917
node down,IM3890367
file prod e 8ts application connect ci scenarios eventin logs eln2en log modified last minutes,IM3894063
drive free space mb mb violated threshold mb,IM3900241
remote site containing node sawalyncr01 unreachable,IM3900937
drive free space kb mb violated threshold mb,IM3895047
remote site containing node sanystiar01 unreachable,IM3887889
remote site containing node saohnewbr01 unreachable,IM3937804
remote site containing node saksoprar01 unreachable,IM3937809
node down,IM3887887
node down,IM3887881
filesystem home exceed threshold,IM3936285
node down,IM3887882
free space disk drive less mb,IM3910858
node down,IM3902063
process httpd voilated threshold,IM3931083
free space disk drive less mb,IM3913724
node down,IM3902065
node down,IM3902069
node down,IM3902068
node down,IM3902263
remote site containing node sakyloier01 unreachable,IM3874170
node down,IM3902267
filesystem home exceed threshold,IM3937975
node down,IM3902080
free space disk drive less mb,IM3879103
remote site containing node satxdriar01 unreachable,IM3879104
node down,IM3873745
filesystem home exceed threshold,IM3936379
remote site containing node sacarcucr01 unreachable,IM3939360
filesystem home exceed threshold,IM3936373
free space disk drive less mb,IM3935935
node down,IM3906749
remote site containing node swncchrtb01 unreachable,IM3887955
free space disk drive less mb,IM3897119
free space disk drive less mb,IM3922876
node down,IM3923876
filesystem tmp exceed threshold,IM3893130
remote site containing node saohhowar01 unreachable,IM3908326
remote site containing node samdrocar01 unreachable,IM3945061
node down,IM3901696
node down,IM3901693
free space disk drive less mb,IM3886215
remote site containing node sacarcucr01 unreachable,IM3939219
free space disk drive less mb,IM3882207
free space disk drive less mb,IM3915244
node down,IM3922671
service 9ss rpp idmdatamartautomation state running,IM3925930
remote site containing node saflccrar01 unreachable,IM3917021
free space disk drive less mb,IM3901329
remote site containing node samideaar01 unreachable,IM3925848
node down,IM3923509
node down,IM3892087
process name ntpd owner ntp status minor condition currently running processes configured threshold,IM3922052
node down,IM3913245
remote site containing node sacalanxr01 unreachable,IM3869476
node down,IM3923507
node down,IM3898558
filesystem var exceed threshold,IM3937028
remote site containing node saflbrnar01 unreachable,IM3873162
paging file total usage exceeds threshold,IM3869751
paging file total usage exceeds threshold,IM3869471
node down,IM3922456
remote site containing node sancchrxr01 unreachable,IM3882845
free space disk drive less mb,IM3877190
paging file total usage exceeds threshold,IM3869571
free space disk drive less mb,IM3877627
drive free space mb mb violated threshold mb,IM3869579
node down,IM3871696
url https sales prepaid sprint com boost sales portal faces login jsp failed load,IM3901567
free space disk drive less mb,IM3887760
free space disk drive less mb,IM3909816
remote site containing node sacaemoar01 unreachable,IM3892422
node down,IM3925598
remote site containing node satxdriar01 unreachable,IM3917547
free space disk drive less mb,IM3869377
node down,IM3925591
node down,IM3925595
remote site containing node sawavandr01 unreachable,IM3869371
node down,IM3925597
remote site containing node rtgarosbb01 unreachable,IM3913869
service 9ss rpp idmdatamartautomation state running,IM3877445
free space disk drive less mb,IM3919535
drive free space mb mb violated threshold mb,IM3868808
node down,IM3905464
paging file total usage exceeds threshold,IM3905465
remote site containing node sascflobr01 unreachable,IM3921033
access point down,IM3921038
node down,IM3908477
remote site containing node sancgrbkr01 unreachable,IM3892731
remote site containing node sascsmrbr01 unreachable,IM3892730
remote site containing node sascflobr01 unreachable,IM3892735
free space disk drive less mb,IM3944425
node down,IM3891280
node down,IM3891281
remote site containing node saksjnczr01 unreachable,IM3919757
paging file total usage exceeds threshold,IM3876001
remote site containing node satxarlar01 unreachable,IM3919753
free space disk drive less mb,IM3944558
process tools ews httpd sbin httpd worker voilated threshold,IM3924087
process tools ews httpd sbin httpd worker voilated threshold,IM3924086
free space disk drive less mb,IM3896801
remote site containing node sailgevbr01 unreachable,IM3900037
remote site containing node samdgaicr01 unreachable,IM3900743
process tools jboss config pvmkc254 4wn production sales6 conf voilated threshold,IM3925827
node down,IM3924243
access point down,IM3921107
free space disk drive less mb,IM3921106
free space disk drive less mb,IM3912555
node down,IM3887230
node down,IM3941612
node down,IM3871669
free space disk drive less mb,IM3915944
node down,IM3876717
node down,IM3890485
filesystem tmp exceed threshold,IM3916931
node down,IM3916936
node down,IM3884148
node down,IM3924160
filesystem home exceed threshold,IM3890177
interface down,IM3880780
filesystem home exceed threshold,IM3894108
remote site containing node sawibrfar01 unreachable,IM3884146
node down,IM3903651
node down,IM3943987
node down,IM3943983
free space disk drive less mb,IM3927697
paging file total usage exceeds threshold,IM3870228
filesystem home exceed threshold,IM3939181
filesystem home exceed threshold,IM3939187
drive free space mb violated threshold mb,IM3902670
free space disk drive less mb,IM3889452
node down,IM3928032
paging file total usage exceeds threshold,IM3894074
remote site containing node satxausir01 unreachable,IM3942128
node down,IM3879486
filesystem home exceed threshold,IM3935093
free space disk drive less mb,IM3900255
service 9ss rpp idmdatamartautomation state running,IM3895709
paging file total usage exceeds threshold,IM3870086
filesystem tmp exceed threshold,IM3929747
url https webservicesgateway sprint com services mvno querycsaservice v1 wsdl failed load,IM3890958
node down,IM3937817
node down,IM3873627
node down,IM3873623
remote site containing node samirosbr01 unreachable,IM3941613
remote site containing node saprhumar01 unreachable,IM3897295
node down,IM3902075
node down,IM3897296
node down,IM3902073
node down,IM3912628
node down,IM3902270
node down,IM3902271
free space disk drive less mb,IM3937969
node down,IM3891218
node down,IM3873195
node down,IM3902098
g5s down triggered application app g5s prod trigger out transactions failed,IM3873197
node down,IM3909024
node down,IM3902094
node down,IM3902095
node down,IM3936383
filesystem home exceed threshold,IM3936386
paging file total usage exceeds threshold,IM3870403
paging file total usage exceeds threshold,IM3870402
node down,IM3912726
free space disk drive less mb,IM3870154
g5s down triggered application app g5s prod trigger out transactions failed,IM3871930
free space disk drive less mb,IM3906772
filesystem var exceed threshold,IM3936531
node down,IM3901661
service 9ss rpp idmdatamartautomation state running,IM3913664
filesystem var exceed threshold,IM3936140
node down,IM3906178
node down,IM3902893
filesystem home exceed threshold,IM3933605
free space disk drive less mb,IM3881879
remote site containing node sailgevbr01 unreachable,IM3873575
node down,IM3901684
filesystem var exceed threshold,IM3937631
node down,IM3901682
node down,IM3901983
node down,IM3934729
free space disk drive less mb,IM3939223
process name ntpd owner ntp status minor condition currently running processes configured threshold,IM3897639
paging file total usage exceeds threshold,IM3901519
free space disk drive less mb,IM3922384
free space disk drive less mb,IM3882271
node down,IM3902300
node down,IM3902301
node down,IM3922602
free space disk drive less mb,IM3944447
node down,IM3925052
remote site containing node sancchtcr01 unreachable,IM3905682
remote site containing node satxelpir01 unreachable,IM3916930
remote site containing node sacaclvdr01 unreachable,IM3925699
remote site containing node sautafoar01 unreachable,IM3925698
remote site containing node saflmirar01 unreachable,IM3929926
remote site containing node sancchtcr01 unreachable,IM3929928
remote site containing node sacachnar01 unreachable,IM3925694
drive free space mb mb violated threshold mb,IM3905041
filesystem oracle u02 exceeded minor threshold,IM3905632
g5s down triggered application app g5s prod trigger out transactions failed,IM3933249
remote site containing node swncchrtb01 unreachable,IM3882301
remote site containing node sancgrbkr01 unreachable,IM3882300
remote site containing node sasccmbtr01 unreachable,IM3882309
remote site containing node sanvskycr01 unreachable,IM3918237
service 9ss rpp idmdatamartautomation state running,IM3869563
node down,IM3901027
filesystem oracle u02 exceeded minor threshold,IM3884200
free space disk drive less mb,IM3922339
filesystem var log exceed threshold,IM3940515
node down,IM3925476
remote site containing node sancwilnr01 unreachable,IM3925473
paging file total usage exceeds threshold,IM3872156
remote site containing node samirosbr01 unreachable,IM3941578
free space disk drive less mb,IM3914379
interface down,IM3886152
node down,IM3941800
process name sshd owner root status major condition currently running processes configured threshold,IM3941801
node down,IM3877059
node down,IM3916173
node down,IM3897281
filesystem tmp exceed threshold,IM3884142
filesystem tmp exceed threshold,IM3938379
paging file total usage exceeds threshold,IM3869413
free space disk drive less mb,IM3918342
free space disk drive less mb,IM3918345
free space disk drive less mb,IM3918346
free space disk drive less mb,IM3904784
node down,IM3900134
node down,IM3908689
free space disk drive less mb,IM3880827
free space disk drive less mb,IM3915155
node down,IM3908448
free space disk drive less mb,IM3915628
free space disk drive less mb,IM3910478
filesystem tmp exceed threshold,IM3892722
node down,IM3934730
free space disk drive less mb,IM3933023
free space disk drive less mb,IM3944437
node down,IM3892728
remote site containing node sancchtcr01 unreachable,IM3892729
filesystem tmp exceed threshold,IM3895357
node down,IM3892946
drive free space mb mb violated threshold mb,IM3892947
free space disk drive less mb,IM3934554
node down,IM3876019
process tools ews httpd sbin httpd worker voilated threshold,IM3924093
process tools ews httpd sbin httpd worker voilated threshold,IM3924091
filesystem tmp exceed threshold,IM3911384
free space disk drive less mb,IM3904035
node down,IM3877872
remote site containing node satxdriar01 unreachable,IM3880796
remote site containing node rtnjsomab01 unreachable,IM3900006
interface down,IM3931613
filesystem tmp exceed threshold,IM3891162
paging file total usage exceeds threshold,IM3940733
filesystem oracle u02 exceeded minor threshold,IM3888265
free space disk drive less mb,IM3887205
paging file total usage exceeds threshold,IM3912558
remote site containing node sagacovbr01 unreachable,IM3939420
free space disk drive less mb,IM3921688
node down,IM3879871
node down,IM3901947
node down,IM3901946
node down,IM3912553
remote site containing node saflmirar01 unreachable,IM3943990
free space disk drive less mb,IM3921208
node down,IM3943996
node down,IM3943998
remote site containing node swflsarib11 unreachable,IM3943999
free space disk drive less mb,IM3895286
remote site containing node sacacover01 unreachable,IM3891709
remote site containing node sacogrjbr01 unreachable,IM3921202
filesystem tmp exceed threshold,IM3870234
remote site containing node sagacovbr01 unreachable,IM3901535
paging file total usage exceeds threshold,IM3871542
free space disk drive less mb,IM3901189
remote site containing node sanjmtlbr01 unreachable,IM3936335
node down,IM3879270
service kiwi syslog server state running,IM3907214
filesystem var log exceed threshold,IM3894005
node down,IM3904921
filesystem tmp exceed threshold,IM3938606
remote site containing node sanjmltbr01 unreachable,IM3936338
free space disk drive less mb,IM3875914
node down,IM3916891
filesystem home exceed threshold,IM3937827
filesystem home exceed threshold,IM3879298
filesystem tmp exceed threshold,IM3929755
remote site containing node sanybrobr01 unreachable,IM3936559
remote site containing node saflcrgar01 unreachable,IM3937821
filesystem tmp exceed threshold,IM3929751
free space disk drive less mb,IM3890942
filesystem var exceed threshold,IM3937828
free space disk drive less mb,IM3931251
free space disk drive less mb,IM3943609
access point down,IM3923981
filesystem var exceed threshold,IM3889739
remote site containing node saazsurar01 unreachable,IM3897284
remote site containing node sanvskycr01 unreachable,IM3897282
paging file total usage exceeds threshold,IM3920882
filesystem tmp exceed threshold,IM3869961
filesystem tmp exceed threshold,IM3889737
filesystem tmp exceed threshold,IM3927353
service 9ss rpp idmdatamartautomation state running,IM3876528
remote site containing node sacachnar01 unreachable,IM3928571
node down,IM3937732
free space disk drive less mb,IM3907542
filesystem oracle u02 exceeded minor threshold,IM3882468
remote site containing node sacogrjbr01 unreachable,IM3923184
node down,IM3936391
paging file total usage exceeds threshold,IM3870418
filesystem tmp exceed threshold,IM3870419
filesystem home exceed threshold,IM3936395
access point down,IM3887930
free space disk drive less mb,IM3893626
node down,IM3881460
node down,IM3923859
paging file total usage exceeds threshold,IM3870094
free space disk drive less mb,IM3927532
free space disk drive less mb,IM3929804
filesystem var exceed threshold,IM3922109
drive free space mb mb violated threshold mb,IM3928405
remote site containing node sasccmbtr01 unreachable,IM3905323
free space disk drive less mb,IM3945289
remote site containing node sawablhcr01 unreachable,IM3937608
remote site containing node cncasrmdb01 unreachable,IM3896714
free space disk drive less mb,IM3912935
free space disk drive less mb,IM3912424
node down,IM3901838
free space disk drive less mb,IM3908870
free space disk drive less mb,IM3899958
node down,IM3902339
node down,IM3902336
node down,IM3902335
access point down,IM3925918
node down,IM3902331
node down,IM3902330
free space disk drive less mb,IM3899823
6wn down triggered application app 6wn prod trigger out transactions failed,IM3932258
free space disk drive less mb,IM3898535
remote site containing node satxiviar01 unreachable,IM3908274
node down,IM3873381
node down,IM3922032
node down,IM3925684
node down,IM3925680
node down,IM3925682
node down,IM3901785
node down,IM3901784
free space disk drive less mb,IM3913067
free space disk drive less mb,IM3913066
remote site containing node sautafoar01 unreachable,IM3868680
filesystem tmp exceed threshold,IM3868683
paging file total usage exceeds threshold,IM3905038
remote site containing node sancjnvcr01 unreachable,IM3882310
drive free space mb violated threshold mb,IM3882644
node down,IM3924187
remote site containing node sacogrjbr01 unreachable,IM3922329
remote site containing node cncasdggb01 unreachable,IM3922327
free space disk drive less mb,IM3922324
node down,IM3922325
remote site containing node samacamcr01 unreachable,IM3905149
free space disk drive less mb,IM3915261
process tools jdk jdk1 0 92 bin java dmule home tools mule lvo apigw211 lvo  voilated threshold,IM3941216
swap utilization average 30m,IM3897434
free space disk drive less mb,IM3941745
free space disk drive less mb,IM3888670
paging file total usage exceeds threshold,IM3918138
node down,IM3901652
node down,IM3901306
free space disk drive less mb,IM3918359
node down,IM3919511
paging file total usage exceeds threshold,IM3869424
service 9ss rpp idmdatamartautomation state running,IM3898197
filesystem tmp exceed threshold,IM3898667
free space disk drive less mb,IM3905022
filesystem tmp exceed threshold,IM3932922
node down,IM3898669
free space disk drive less mb,IM3904144
remote site containing node cndcwaspb01 unreachable,IM3918467
remote site containing node saflmirar01 unreachable,IM3908454
node down,IM3904143
cos retail issue resolution,IM3888585
remote site containing node sanvrenkr01 unreachable,IM3869220
drive free space mb mb violated threshold mb,IM3869551
remote site containing node saprcagcr01 unreachable,IM3919561
node down,IM3941900
filesystem tmp exceed threshold,IM3896582
filesystem home exceed threshold,IM3892973
free space disk drive less mb,IM3934562
primary nnm server cluster,IM3906890
free space disk drive less mb,IM3934560
filesystem oracle u02 exceeded minor threshold,IM3885546
node down,IM3927958
node down,IM3877866
free space disk drive less mb,IM3943856
primary nnm server cluster,IM3892575
free space disk drive less mb,IM3940726
node down,IM3915522
node down,IM3941638
free space disk drive less mb,IM3912484
paging file total usage exceeds threshold,IM3914035
free space disk drive less mb,IM3871421
remote site containing node sancchtcr01 unreachable,IM3876733
free space disk drive less mb,IM3889503
remote site containing node saflmimnr01 unreachable,IM3889506
node down,IM3876061
node down,IM3876749
node down,IM3924139
free space disk drive less mb,IM3895472
remote site containing node sascsmrbr01 unreachable,IM3904311
node down,IM3906947
node down,IM3906949
node down,IM3912627
service 9ss rpp idmdatamartautomation state running,IM3872783
node down,IM3919778
url https itam corp sprint com assetmanager failed load,IM3900499
remote site containing node sakyloier01 unreachable,IM3919772
node down,IM3876020
node down,IM3880672
process tools jdk jdk1 0 92 bin java dmule home tools mule lvo apigw211 lvo  voilated threshold,IM3931464
network associates mcshield service running,IM3871552
please investigate,IM3871552
free space disk drive less mb,IM3871551
process tools jdk jdk1 0 92 bin java dmule home tools mule lvo apigw211 lvo  voilated threshold,IM3931468
node down,IM3879598
free space disk drive less mb,IM3920961
free space disk drive less mb,IM3920967
service 9ss rpp idmdatamartautomation state running,IM3885164
free space disk drive less mb,IM3894383
node down,IM3879267
drive free space mb mb violated threshold mb,IM3904958
free space disk drive less mb,IM3894016
filesystem oracle u02 exceeded minor threshold,IM3904951
remote site containing node sacothoar01 unreachable,IM3879462
remote site containing node saohwetdr01 unreachable,IM3916885
process tools jdk jdk1 0 92 bin java dmule home tools mule lvo apigw211 lvo  voilated threshold,IM3920569
drive free space mb violated threshold mb,IM3900278
remote site containing node sacarcucr01 unreachable,IM3911353
node down,IM3911352
node down,IM3894310
remote site containing node satxhouyr01 unreachable,IM3873600
remote site containing node satxftwlr01 unreachable,IM3923997
filesystem home exceed threshold,IM3893946
paging file total usage exceeds threshold,IM3870394
drive free space mb mb violated threshold mb,IM3920890
node down,IM3902252
node down,IM3902253
access point down,IM3916085
node down,IM3902256
remote site containing node satxsanyr01 unreachable,IM3916775
filesystem oracle u02 exceeded minor threshold,IM3895653
process name crond owner root status minor condition currently running processes configured threshold,IM3928186
node down,IM3911258
free space disk drive less mb,IM3903652
node down,IM3928182
node down,IM3923201
node down,IM3937724
free space disk drive less mb,IM3905203
remote site containing node saildarar01 unreachable,IM3887923
free space disk drive less mb,IM3912492
filesystem tmp exceed threshold,IM3938911
node down,IM3937831
access point down,IM3937832
remote site containing node sacathoar01 unreachable,IM3874520
node down,IM3879735
node down,IM3929833
filesystem home exceed threshold,IM3909469
free space disk drive less mb,IM3922139
interface down,IM3872558
service 9ss rpp idmdatamartautomation state running,IM3917177
node down,IM3936238
filesystem apps exceeded minor threshold,IM3917174
node down,IM3936235
free space disk drive less mb,IM3873750
free space disk drive less mb,IM3872951
node down,IM3902326
node down,IM3902328
free space disk drive less mb,IM3945631
free space disk drive less mb,IM3899923
free space disk drive less mb,IM3904799
remote site containing node samdrocar01 unreachable,IM3945141
node down,IM3925677
node down,IM3936388
node down,IM3925678
free space disk drive less mb,IM3941359
drive free space mb mb violated threshold mb,IM3905024
node down,IM3913076
filesystem oracle u02 exceeded minor threshold,IM3886319
node down,IM3869162
interface down,IM3882320
mountpoints become read plsla543,IM3922489
process tools jdk jdk1 0 92 bin java dmule home tools mule lvo apigw211 lvo  voilated threshold,IM3932548
node down,IM3884220
free space disk drive less mb,IM3933826
filesystem home exceed threshold,IM3933280
remote site containing node swncchrtb01 unreachable,IM3887943
interface down,IM3872603
node down,IM3941758
free space disk drive less mb,IM3897423
free space disk drive less mb,IM3909862
free space disk drive less mb,IM3905152
free space disk drive less mb,IM3897428
interface down,IM3877076
node down,IM3901648
node down,IM3901649
filesystem opt exceed threshold,IM3925895
node down,IM3883697
node down,IM3901642
node down,IM3901640
node down,IM3878082
filesystem tmp exceed threshold,IM3941288
