{
  "swagger": "2.0",
  "info": {
    "license": {
      "name": "",
      "url": "https://opensource.org/`license`s/MIT"
    }
  },
  "host": "prodapi.xpresso.ai:8084",
  "basePath": "/",
  "schemes": [
    "http"
  ],
  "consumes": [
    "application/json"
  ],
  "produces": [
    "application/json"
  ],
  "paths": {
    "/gettoken": {
      "post": {
        "tags": [
          "Generate Token"
        ],
        "summary": "Gives a token and save the user accesible endpoints",

        "produces": [
          "application/json"
        ],
        "parameters": [{
          "name": "Generate token for authentication",
          "in": "body",
          "description": "User Id and endpoints",
          "required": true,
          "schema": {
            "$ref": "#/definitions/gettokenrequest"
          }
        }],
        "responses": {
          "200": {
            "description": "success"
          },
          "400": {
            "description": "Invalid input"
          },
          "401": {
            "description": "User Token does not exist"
          },
          "404": {
            "description": "Access Denied"
          },
          "405": {
            "description": "Insufficient Information"
          },
          "500": {
            "description": "Internal Server error"
          }
        }
      }
    }
  },
  "definitions": {
    "gettokenrequest": {
      "properties": {
        "user": {
          "type": "string"
        },
        "endpoint": {
          "type": "array",
          "items": {
            "type": "string"
          },
          "uniqueItems": true
        }
      }
    }

  }
}
